<?xml version="1.0" encoding="utf-8"?>
<!-- Generator: Adobe Illustrator 23.1.1, SVG Export Plug-In . SVG Version: 6.00 Build 0)  -->
<svg version="1.1" id="Calque_1" xmlns="http://www.w3.org/2000/svg" xmlns:xlink="http://www.w3.org/1999/xlink" x="0px" y="0px"
	 viewBox="0 0 20.9 20" style="enable-background:new 0 0 20.9 20;" xml:space="preserve">
<style type="text/css">
	.st0{fill:#FFFFFF;}
</style>
<g id="Capa_1">
	<g>
		<path id="LinkedIn" class="st0" d="M20.9,12.2V20h-4.5v-7.2c0-1.8-0.7-3.1-2.3-3.1c-1.2,0-1.9,0.8-2.2,1.6
			c-0.2,0.2-0.2,0.7-0.2,1.1v7.5H7.2c0,0,0.1-12.2,0-13.5h4.5v1.9c0,0,0,0,0,0.1l0,0V8.3c0.6-0.9,1.7-2.2,4-2.2
			C18.8,6.2,20.9,8.1,20.9,12.2z M2.6,0C1,0,0,1,0,2.3s1,2.3,2.5,2.3l0,0C4,4.7,5,3.7,5,2.3S4.1,0,2.6,0z M0.2,20h4.5V6.5H0.2V20z"
			/>
	</g>
</g>
<g id="Layer_1">
</g>
</svg>
